Matrix Multiply Accelerator/FSM_Logic/fsm.vcd
$date
	Mon Jul 07 21:47:49 2025
$end
$version
	Icarus Verilog
$end
$timescale
	1s
$end
$scope module fsm_tb $end
$var wire 1 ! enable_from_fsm $end
$var wire 1 " done $end
$var wire 8 # b_out [7:0] $end
$var wire 8 $ a_out [7:0] $end
$var wire 226 % C [225:0] $end
$var reg 1 & clk $end
$var reg 16 ' mac_out_in_fsm [15:0] $end
$var reg 1 ( reset $end
$var reg 1 ) start $end
$scope module dut $end
$var wire 1 & clk $end
$var wire 1 ! enable_from_fsm $end
$var wire 16 * mac_out_in_fsm [15:0] $end
$var wire 1 ( reset $end
$var wire 1 ) start $end
$var parameter 4 + DONE $end
$var parameter 4 , IDLE $end
$var parameter 4 - LOAD $end
$var parameter 4 . MAC_LOOP $end
$var parameter 4 / NEXT $end
$var parameter 4 0 SAVE $end
$var reg 226 1 C_out [225:0] $end
$var reg 8 2 a_out [7:0] $end
$var reg 8 3 b_out [7:0] $end
$var reg 3 4 col [2:0] $end
$var reg 1 " done $end
$var reg 1 5 enable_mac $end
$var reg 3 6 k [2:0] $end
$var reg 1 7 k_flag $end
$var reg 1 8 next_done $end
$var reg 3 9 next_state [2:0] $end
$var reg 3 : row [2:0] $end
$var reg 3 ; state [2:0] $end
$upscope $end
$upscope $end
$enddefinitions $end
$comment Show the parameter values. $end
$dumpall
b11 0
b100 /
b10 .
b1 -
b0 ,
b101 +
$end
#0
$dumpvars
bx ;
bx :
bx 9
x8
x7
bx 6
x5
bx 4
bx 3
bx 2
bx 1
bx *
1)
1(
bx '
0&
bx %
bx $
bx #
x"
x!
$end
#5
b0 ;
08
0!
05
07
0"
b0 #
b0 3
b0 $
b0 2
1&
#6
0(
#10
0&
#15
b1 9
bx ;
1&
#20
0&
#25
b1 ;
1&
#30
0&
#35
b0 6
b0 4
b0 :
b10 9
1&
#40
0&
#45
b10 ;
1&
#50
0&
#55
b1 6
b1 #
b1 3
b1 $
b1 2
1!
15
1&
#60
0&
#65
b10 6
1!
15
b100 #
b100 3
b10 $
b10 2
1&
#70
0&
#75
b11 6
1!
15
b1 #
b1 3
b11 $
b11 2
1&
#80
0&
#85
17
b0 6
b11 9
1!
15
b11 #
b11 3
b100 $
b100 2
1&
#90
0&
#95
b11 ;
0!
05
07
b0 #
b0 3
b0 $
b0 2
1&
#100
0&
#105
b100 9
1&
#110
0&
#115
b100 ;
1&
#120
0&
#125
b10 9
b1 4
18
1&
#130
0&
#135
b10 ;
18
1&
#140
0&
#145
b1 6
b1 $
b1 2
1!
15
08
1&
#150
0&
#155
b10 6
b1 #
b1 3
1!
15
b10 $
b10 2
1&
#160
0&
#165
b11 6
1!
15
b10 #
b10 3
b11 $
b11 2
1&
#170
0&
#175
17
b0 6
b11 9
1!
15
b0 #
b0 3
b100 $
b100 2
1&
#180
0&
#185
b11 ;
0!
05
07
b0 $
b0 2
1&
#190
0&
#195
b100 9
1&
#200
0&
#205
b100 ;
1&
#210
0&
#215
b10 9
b10 4
18
1&
#220
0&
#225
b10 ;
18
1&
#230
0&
#235
b1 6
b10 #
b10 3
b1 $
b1 2
1!
15
08
1&
#240
0&
#245
b10 6
1!
15
b0 #
b0 3
b10 $
b10 2
1&
#250
0&
#255
b11 6
b1 #
b1 3
1!
15
b11 $
b11 2
1&
#260
0&
#265
17
b0 6
b11 9
1!
15
b100 #
b100 3
b100 $
b100 2
1&
#270
0&
#275
b11 ;
0!
05
07
b0 #
b0 3
b0 $
b0 2
1&
#280
0&
#285
b100 9
1&
#290
0&
#295
b100 ;
1&
#300
0&
#305
b10 9
b11 4
18
1&
#310
0&
#315
b10 ;
18
1&
#320
0&
#325
b1 6
b11 #
b11 3
b1 $
b1 2
1!
15
08
1&
#330
0&
#335
b10 6
1!
15
b10 #
b10 3
b10 $
b10 2
1&
#340
0&
#345
b11 6
1!
15
b0 #
b0 3
b11 $
b11 2
1&
#350
0&
#355
17
b0 6
b11 9
b1 #
b1 3
1!
15
b100 $
b100 2
1&
#360
0&
#365
b11 ;
0!
05
07
b0 #
b0 3
b0 $
b0 2
1&
#370
0&
#375
b100 9
1&
#380
0&
#385
b100 ;
1&
#390
0&
#395
b10 9
b0 4
b1 :
18
1&
#400
0&
#405
b10 ;
18
1&
#410
0&
#415
b1 6
b1 #
b1 3
b101 $
b101 2
1!
15
08
1&
#420
0&
#425
b10 6
1!
15
b100 #
b100 3
b110 $
b110 2
1&
#430
0&
#435
b11 6
1!
15
b1 #
b1 3
b111 $
b111 2
1&
#440
0&
#445
17
b0 6
b11 9
1!
15
b11 #
b11 3
b1000 $
b1000 2
1&
#450
0&
#455
b11 ;
0!
05
07
b0 #
b0 3
b0 $
b0 2
1&
#460
0&
#465
b100 9
1&
#470
0&
#475
b100 ;
1&
#480
0&
#485
b10 9
b1 4
18
1&
#490
0&
#495
b10 ;
18
1&
#500
0&
#505
b1 6
b101 $
b101 2
1!
15
08
1&
#510
0&
#515
b10 6
b1 #
b1 3
1!
15
b110 $
b110 2
1&
#520
0&
#525
b11 6
1!
15
b10 #
b10 3
b111 $
b111 2
1&
#530
0&
#535
17
b0 6
b11 9
1!
15
b0 #
b0 3
b1000 $
b1000 2
1&
#540
0&
#545
b11 ;
0!
05
07
b0 $
b0 2
1&
#550
0&
#555
b100 9
1&
#560
0&
#565
b100 ;
1&
#570
0&
#575
b10 9
b10 4
18
1&
#580
0&
#585
b10 ;
18
1&
#590
0&
#595
b1 6
b10 #
b10 3
b101 $
b101 2
1!
15
08
1&
#600
0&
#605
b10 6
1!
15
b0 #
b0 3
b110 $
b110 2
1&
#610
0&
#615
b11 6
b1 #
b1 3
1!
15
b111 $
b111 2
1&
#620
0&
#625
17
b0 6
b11 9
1!
15
b100 #
b100 3
b1000 $
b1000 2
1&
#630
0&
#635
b11 ;
0!
05
07
b0 #
b0 3
b0 $
b0 2
1&
#640
0&
#645
b100 9
1&
#650
0&
#655
b100 ;
1&
#660
0&
#665
b10 9
b11 4
18
1&
#670
0&
#675
b10 ;
18
1&
#680
0&
#685
b1 6
b11 #
b11 3
b101 $
b101 2
1!
15
08
1&
#690
0&
#695
b10 6
1!
15
b10 #
b10 3
b110 $
b110 2
1&
#700
0&
#705
b11 6
1!
15
b0 #
b0 3
b111 $
b111 2
1&
#710
0&
#715
17
b0 6
b11 9
b1 #
b1 3
1!
15
b1000 $
b1000 2
1&
#720
0&
#725
b11 ;
0!
05
07
b0 #
b0 3
b0 $
b0 2
1&
#730
0&
#735
b100 9
1&
#740
0&
#745
b100 ;
1&
#750
0&
#755
b10 9
b0 4
b10 :
18
1&
#760
0&
#765
b10 ;
18
1&
#770
0&
#775
b1 6
b1 #
b1 3
b1 $
b1 2
1!
15
08
1&
#780
0&
#785
b10 6
1!
15
b100 #
b100 3
b0 $
b0 2
1&
#790
0&
#795
b11 6
b10 $
b10 2
1!
15
b1 #
b1 3
1&
#800
0&
#805
17
b0 6
b11 9
1!
15
b11 #
b11 3
b11 $
b11 2
1&
#810
0&
#815
b11 ;
0!
05
07
b0 #
b0 3
b0 $
b0 2
1&
#820
0&
#825
b100 9
1&
#830
0&
#835
b100 ;
1&
#840
0&
#845
b10 9
b1 4
18
1&
#850
0&
#855
b10 ;
18
1&
#860
0&
#865
b1 6
b1 $
b1 2
1!
15
08
1&
#870
0&
#875
b10 6
b1 #
b1 3
1!
15
b0 $
b0 2
1&
#880
0&
#885
b11 6
b10 $
b10 2
1!
15
b10 #
b10 3
1&
#890
0&
#895
17
b0 6
b11 9
1!
15
b0 #
b0 3
b11 $
b11 2
1&
#900
0&
#905
b11 ;
0!
05
07
b0 $
b0 2
1&
#910
0&
#915
b100 9
1&
#920
0&
#925
b100 ;
1&
#930
0&
#935
b10 9
b10 4
18
1&
#940
0&
#945
b10 ;
18
1&
#950
0&
#955
b1 6
b10 #
b10 3
b1 $
b1 2
1!
15
08
1&
#960
0&
#965
b10 6
1!
15
b0 #
b0 3
b0 $
b0 2
1&
#970
0&
#975
b11 6
b1 #
b1 3
b10 $
b10 2
1!
15
1&
#980
0&
#985
17
b0 6
b11 9
1!
15
b100 #
b100 3
b11 $
b11 2
1&
#990
0&
#995
b11 ;
0!
05
07
b0 #
b0 3
b0 $
b0 2
1&
#1000
0&
#1005
b100 9
1&
#1010
0&
#1015
b100 ;
1&
#1020
0&
#1025
b10 9
b11 4
18
1&
#1030
0&
#1035
b10 ;
18
1&
#1040
0&
#1045
b1 6
b11 #
b11 3
b1 $
b1 2
1!
15
08
1&
#1050
0&
#1055
b10 6
1!
15
b10 #
b10 3
b0 $
b0 2
1&
#1060
0&
#1065
b11 6
b10 $
b10 2
1!
15
b0 #
b0 3
1&
#1070
0&
#1075
17
b0 6
b11 9
b1 #
b1 3
1!
15
b11 $
b11 2
1&
#1080
0&
#1085
b11 ;
0!
05
07
b0 #
b0 3
b0 $
b0 2
1&
#1090
0&
#1095
b100 9
1&
#1100
0&
#1105
b100 ;
1&
#1110
0&
#1115
b10 9
b0 4
b11 :
18
1&
#1120
0&
#1125
b10 ;
18
1&
#1130
0&
#1135
b1 6
b1 #
b1 3
b100 $
b100 2
1!
15
08
1&
#1140
0&
#1145
b10 6
1!
15
b100 #
b100 3
b1 $
b1 2
1&
#1150
0&
#1155
b11 6
1!
15
b1 #
b1 3
b0 $
b0 2
1&
#1160
0&
#1165
17
b0 6
b11 9
b10 $
b10 2
1!
15
b11 #
b11 3
1&
#1170
0&
#1175
b11 ;
0!
05
07
b0 #
b0 3
b0 $
b0 2
1&
#1180
0&
#1185
b100 9
1&
#1190
0&
#1195
b100 ;
1&
#1200
0&
#1205
b10 9
b1 4
18
1&
#1210
0&
#1215
b10 ;
18
1&
#1220
0&
#1225
b1 6
b100 $
b100 2
1!
15
08
1&
#1230
0&
#1235
b10 6
b1 #
b1 3
1!
15
b1 $
b1 2
1&
#1240
0&
#1245
b11 6
1!
15
b10 #
b10 3
b0 $
b0 2
1&
#1250
0&
#1255
17
b0 6
b11 9
b10 $
b10 2
1!
15
b0 #
b0 3
1&
#1260
0&
#1265
b11 ;
0!
05
07
b0 $
b0 2
1&
#1270
0&
#1275
b100 9
1&
#1280
0&
#1285
b100 ;
1&
#1290
0&
#1295
b10 9
b10 4
18
1&
#1300
0&
#1305
b10 ;
18
1&
#1310
0&
#1315
b1 6
b10 #
b10 3
b100 $
b100 2
1!
15
08
1&
#1320
0&
#1325
b10 6
1!
15
b0 #
b0 3
b1 $
b1 2
1&
#1330
0&
#1335
b11 6
b1 #
b1 3
1!
15
b0 $
b0 2
1&
#1340
0&
#1345
17
b0 6
b11 9
b10 $
b10 2
1!
15
b100 #
b100 3
1&
#1350
0&
#1355
b11 ;
0!
05
07
b0 #
b0 3
b0 $
b0 2
1&
#1360
0&
#1365
b100 9
1&
#1370
0&
#1375
b100 ;
1&
#1380
0&
#1385
b10 9
b11 4
18
1&
#1390
0&
#1395
b10 ;
18
1&
#1400
0&
#1405
b1 6
b11 #
b11 3
b100 $
b100 2
1!
15
08
1&
#1410
0&
#1415
b10 6
1!
15
b10 #
b10 3
b1 $
b1 2
1&
#1420
0&
#1425
b11 6
1!
15
b0 #
b0 3
b0 $
b0 2
1&
#1430
0&
#1435
17
b0 6
b11 9
b1 #
b1 3
b10 $
b10 2
1!
15
1&
#1440
0&
#1445
b11 ;
0!
05
07
b0 #
b0 3
b0 $
b0 2
1&
#1450
0&
#1455
b100 9
1&
#1460
0&
#1465
b100 ;
1&
#1470
0&
#1475
b0 4
b0 :
b101 9
18
1&
#1480
0&
#1485
b101 ;
18
1&
#1490
0&
#1495
1"
08
1&
#1500
0&
#1505
1"
1&
#1510
0&
#1515
1"
1&
#1520
0&
#1525
1"
1&
#1530
0&
#1535
1"
1&
#1540
0&
#1545
1"
1&
#1550
0&
#1555
1"
1&
#1560
0&
#1565
1"
1&
#1570
0&
#1575
1"
1&
#1580
0&
#1585
1"
1&
#1590
0&
#1595
1"
1&
#1600
0&
#1605
1"
1&
#1610
0&
#1615
1"
1&
#1620
0&
#1625
1"
1&
#1630
0&
#1635
1"
1&
#1640
0&
#1645
1"
1&
#1650
0&
#1655
1"
1&
#1660
0&
#1665
1"
1&
#1670
0&
#1675
1"
1&
#1680
0&
#1685
1"
1&
#1690
0&
#1695
1"
1&
#1700
0&
#1705
1"
1&
#1710
0&
#1715
1"
1&
#1720
0&
#1725
1"
1&
#1730
0&
#1735
1"
1&
#1740
0&
#1745
1"
1&
#1750
0&
#1755
1"
1&
#1760
0&
#1765
1"
1&
#1770
0&
#1775
1"
1&
#1780
0&
#1785
1"
1&
#1790
0&
#1795
1"
1&
#1800
0&
#1805
1"
1&
#1810
0&
#1815
1"
1&
#1820
0&
#1825
1"
1&
#1830
0&
#1835
1"
1&
#1840
0&
#1845
1"
1&
#1850
0&
#1855
1"
1&
#1860
0&
#1865
1"
1&
#1870
0&
#1875
1"
1&
#1880
0&
#1885
1"
1&
#1890
0&
#1895
1"
1&
#1900
0&
#1905
1"
1&
#1910
0&
#1915
1"
1&
#1920
0&
#1925
1"
1&
#1930
0&
#1935
1"
1&
#1940
0&
#1945
1"
1&
#1950
0&
#1955
1"
1&
#1960
0&
#1965
1"
1&
#1970
0&
#1975
1"
1&
#1980
0&
#1985
1"
1&
#1990
0&
#1995
1"
1&
